\relax 
\providecommand{\transparent@use}[1]{}
\providecommand\hyper@newdestlabel[2]{}
\providecommand\HyperFirstAtBeginDocument{\AtBeginDocument}
\HyperFirstAtBeginDocument{\ifx\hyper@anchor\@undefined
\global\let\oldcontentsline\contentsline
\gdef\contentsline#1#2#3#4{\oldcontentsline{#1}{#2}{#3}}
\global\let\oldnewlabel\newlabel
\gdef\newlabel#1#2{\newlabelxx{#1}#2}
\gdef\newlabelxx#1#2#3#4#5#6{\oldnewlabel{#1}{{#2}{#3}}}
\AtEndDocument{\ifx\hyper@anchor\@undefined
\let\contentsline\oldcontentsline
\let\newlabel\oldnewlabel
\fi}
\fi}
\global\let\hyper@last\relax 
\gdef\HyperFirstAtBeginDocument#1{#1}
\providecommand\HyField@AuxAddToFields[1]{}
\providecommand\HyField@AuxAddToCoFields[2]{}
\@writefile{toc}{\contentsline {section}{\numberline {1}Executive summary}{3}{section.1}\protected@file@percent }
\@writefile{toc}{\contentsline {section}{\numberline {2}Codes}{3}{section.2}\protected@file@percent }
\newlabel{codes}{{2}{3}{Codes}{section.2}{}}
\@writefile{lof}{\contentsline {figure}{\numberline {1}{\ignorespaces 3D view of the structural model.\relax }}{4}{figure.caption.2}\protected@file@percent }
\providecommand*\caption@xref[2]{\@setref\relax\@undefined{#1}}
\newlabel{fg_3d_view_structural_model}{{1}{4}{3D view of the structural model.\relax }{figure.caption.2}{}}
\@writefile{toc}{\contentsline {section}{\numberline {3}Loading criteria}{5}{section.3}\protected@file@percent }
\newlabel{loading_criteria}{{3}{5}{Loading criteria}{section.3}{}}
\@writefile{toc}{\contentsline {subsection}{\numberline {3.1}Dead load (DL)}{5}{subsection.3.1}\protected@file@percent }
\@writefile{toc}{\contentsline {subsection}{\numberline {3.2}Live loads (LL)}{6}{subsection.3.2}\protected@file@percent }
\@writefile{toc}{\contentsline {subsubsection}{\numberline {3.2.1}Main building}{6}{subsubsection.3.2.1}\protected@file@percent }
\@writefile{toc}{\contentsline {subsubsection}{\numberline {3.2.2}Tornado shelter}{6}{subsubsection.3.2.2}\protected@file@percent }
\@writefile{toc}{\contentsline {subsection}{\numberline {3.3}Snow load (SL)}{6}{subsection.3.3}\protected@file@percent }
\newlabel{sc_snow_load}{{3.3}{6}{Snow load (SL)}{subsection.3.3}{}}
\@writefile{lof}{\contentsline {figure}{\numberline {2}{\ignorespaces Loads distribution over roof\relax }}{7}{figure.caption.3}\protected@file@percent }
\newlabel{roof_load_distribution}{{2}{7}{Loads distribution over roof\relax }{figure.caption.3}{}}
\@writefile{lof}{\contentsline {figure}{\numberline {3}{\ignorespaces Loads distribution over attic\relax }}{8}{figure.caption.4}\protected@file@percent }
\newlabel{attic_load_distribution}{{3}{8}{Loads distribution over attic\relax }{figure.caption.4}{}}
\@writefile{lof}{\contentsline {figure}{\numberline {4}{\ignorespaces Loads distribution over 2nd floor\relax }}{9}{figure.caption.5}\protected@file@percent }
\newlabel{2floor_load_distribution}{{4}{9}{Loads distribution over 2nd floor\relax }{figure.caption.5}{}}
\@writefile{lof}{\contentsline {figure}{\numberline {5}{\ignorespaces Zone map for roof snow loads \emph  {(UDC chapter SPS 320)}\relax }}{10}{figure.caption.6}\protected@file@percent }
\newlabel{snow_zone_map}{{5}{10}{Zone map for roof snow loads \emph {(UDC chapter SPS 320)}\relax }{figure.caption.6}{}}
\@writefile{toc}{\contentsline {subsection}{\numberline {3.4}Wind design criteria}{11}{subsection.3.4}\protected@file@percent }
\@writefile{toc}{\contentsline {subsubsection}{\numberline {3.4.1}Main building}{11}{subsubsection.3.4.1}\protected@file@percent }
\@writefile{lot}{\contentsline {table}{\numberline {1}{\ignorespaces \textbf  {Wind Design Criteria}\relax }}{11}{table.caption.7}\protected@file@percent }
\newlabel{wind_load}{{1}{11}{\textbf {Wind Design Criteria}\relax }{table.caption.7}{}}
\@writefile{toc}{\contentsline {paragraph}{Directionality factor}{11}{section*.8}\protected@file@percent }
\@writefile{toc}{\contentsline {paragraph}{Ground elevation factor}{11}{section*.9}\protected@file@percent }
\@writefile{toc}{\contentsline {paragraph}{Gust-effect factor}{11}{section*.10}\protected@file@percent }
\@writefile{toc}{\contentsline {paragraph}{Velocity pressure exposure coefficient $K_z$}{11}{section*.11}\protected@file@percent }
\newlabel{eq_K_z}{{1}{11}{Velocity pressure exposure coefficient $K_z$}{equation.3.1}{}}
\@writefile{toc}{\contentsline {paragraph}{Velocity pressure}{11}{section*.12}\protected@file@percent }
\@writefile{lof}{\contentsline {figure}{\numberline {6}{\ignorespaces Main wind force resisting system \emph  {(fig. 27.3-1 ASCE7-22)}\relax }}{12}{figure.caption.13}\protected@file@percent }
\newlabel{wind_force_resisting_system}{{6}{12}{Main wind force resisting system \emph {(fig. 27.3-1 ASCE7-22)}\relax }{figure.caption.13}{}}
\@writefile{toc}{\contentsline {paragraph}{Internal pressure coefficient $GC_{pi}$}{13}{section*.14}\protected@file@percent }
\@writefile{lof}{\contentsline {figure}{\numberline {7}{\ignorespaces \footnotesize  {External pressures over building transverse-section for wind in East-West direction}\relax }}{14}{figure.caption.15}\protected@file@percent }
\newlabel{windEWext_load_distribution}{{7}{14}{\footnotesize {External pressures over building transverse-section for wind in East-West direction}\relax }{figure.caption.15}{}}
\@writefile{lof}{\contentsline {figure}{\numberline {8}{\ignorespaces \footnotesize  {External pressures over building transverse-section for wind in West-East direction}\relax }}{14}{figure.caption.16}\protected@file@percent }
\newlabel{windWEext_load_distribution}{{8}{14}{\footnotesize {External pressures over building transverse-section for wind in West-East direction}\relax }{figure.caption.16}{}}
\@writefile{lof}{\contentsline {figure}{\numberline {9}{\ignorespaces \footnotesize  {Internal positive wind pressures over building transverse-section}\relax }}{15}{figure.caption.17}\protected@file@percent }
\newlabel{intPos_load_distribution}{{9}{15}{\footnotesize {Internal positive wind pressures over building transverse-section}\relax }{figure.caption.17}{}}
\@writefile{lof}{\contentsline {figure}{\numberline {10}{\ignorespaces \footnotesize  {Internal negative wind pressures over building transverse-section}\relax }}{15}{figure.caption.18}\protected@file@percent }
\newlabel{intNeg_load_distribution}{{10}{15}{\footnotesize {Internal negative wind pressures over building transverse-section}\relax }{figure.caption.18}{}}
\@writefile{toc}{\contentsline {subsection}{\numberline {3.5}Tornado shelter}{16}{subsection.3.5}\protected@file@percent }
\@writefile{toc}{\contentsline {section}{\numberline {4}Materials}{16}{section.4}\protected@file@percent }
\@writefile{toc}{\contentsline {subsection}{\numberline {4.1}Reinforced concrete}{16}{subsection.4.1}\protected@file@percent }
\@writefile{lof}{\contentsline {figure}{\numberline {11}{\ignorespaces \footnotesize  {Design wind speed $v_T$ for tornadoes \emph  {fig. 304.2 500 ICC/NSSA Standard}}\relax }}{17}{figure.caption.19}\protected@file@percent }
\newlabel{wind_speed_tornado}{{11}{17}{\footnotesize {Design wind speed $v_T$ for tornadoes \emph {fig. 304.2 500 ICC/NSSA Standard}}\relax }{figure.caption.19}{}}
\@writefile{toc}{\contentsline {subsection}{\numberline {4.2}Structural steel}{17}{subsection.4.2}\protected@file@percent }
\@writefile{toc}{\contentsline {subsection}{\numberline {4.3}Wood structural panels}{17}{subsection.4.3}\protected@file@percent }
\@writefile{toc}{\contentsline {subsubsection}{\numberline {4.3.1}Laminated veneer lumber (LVL)}{17}{subsubsection.4.3.1}\protected@file@percent }
\@writefile{toc}{\contentsline {section}{\numberline {5}Load combinations}{18}{section.5}\protected@file@percent }
\@writefile{lot}{\contentsline {table}{\numberline {2}{\ignorespaces \textbf  {Combinations Ultimate Limit States}\relax }}{18}{table.caption.20}\protected@file@percent }
\newlabel{ULS}{{2}{18}{\textbf {Combinations Ultimate Limit States}\relax }{table.caption.20}{}}
\@writefile{toc}{\contentsline {section}{\numberline {6}Serviceability}{18}{section.6}\protected@file@percent }
\newlabel{sc_serviceability}{{6}{18}{Serviceability}{section.6}{}}
\@writefile{lot}{\contentsline {table}{\numberline {3}{\ignorespaces \textbf  {Combinations Serviceability Limit States}\relax }}{19}{table.caption.21}\protected@file@percent }
\newlabel{SLS}{{3}{19}{\textbf {Combinations Serviceability Limit States}\relax }{table.caption.21}{}}
\@writefile{toc}{\contentsline {section}{\numberline {7}Design technique}{19}{section.7}\protected@file@percent }
\@writefile{toc}{\contentsline {subsection}{\numberline {7.1}Design and analysis software}{19}{subsection.7.1}\protected@file@percent }
\@writefile{lot}{\contentsline {table}{\numberline {4}{\ignorespaces \textbf  {Deflection limits}\emph  { (from table 1604.6 IBC-18)}\relax }}{20}{table.caption.22}\protected@file@percent }
\newlabel{IBC_deflect_limits}{{4}{20}{\textbf {Deflection limits}\emph { (from table 1604.6 IBC-18)}\relax }{table.caption.22}{}}
\@writefile{toc}{\contentsline {subsection}{\numberline {7.2}Horizontal distribution of wind forces to shear walls and steel structure}{20}{subsection.7.2}\protected@file@percent }
\newlabel{horiz_distrib_wind}{{7.2}{20}{Horizontal distribution of wind forces to shear walls and steel structure}{subsection.7.2}{}}
\@writefile{toc}{\contentsline {subsubsection}{\numberline {7.2.1}Introduction}{20}{subsubsection.7.2.1}\protected@file@percent }
\@writefile{toc}{\contentsline {subsubsection}{\numberline {7.2.2}Analysis of the shear distribution}{20}{subsubsection.7.2.2}\protected@file@percent }
\@writefile{lof}{\contentsline {figure}{\numberline {12}{\ignorespaces SE module shear resistance scheme.\relax }}{21}{figure.caption.23}\protected@file@percent }
\newlabel{fg_outh_east_module_shear_resistance_scheme}{{12}{21}{SE module shear resistance scheme.\relax }{figure.caption.23}{}}
\@writefile{lof}{\contentsline {figure}{\numberline {13}{\ignorespaces Horizontal distribution of wind forces, South-East module\relax }}{22}{figure.caption.24}\protected@file@percent }
\newlabel{SE_module_wind_horiz_distr}{{13}{22}{Horizontal distribution of wind forces, South-East module\relax }{figure.caption.24}{}}
\@writefile{lof}{\contentsline {figure}{\numberline {14}{\ignorespaces Horizontal distribution of wind forces, South-West module\relax }}{23}{figure.caption.25}\protected@file@percent }
\newlabel{SW_module_wind_horiz_distr}{{14}{23}{Horizontal distribution of wind forces, South-West module\relax }{figure.caption.25}{}}
\@writefile{lof}{\contentsline {figure}{\numberline {15}{\ignorespaces In-plane displacement West shear wall, SE module\relax }}{24}{figure.caption.26}\protected@file@percent }
\newlabel{uYforShearwallStiff}{{15}{24}{In-plane displacement West shear wall, SE module\relax }{figure.caption.26}{}}
\@writefile{lof}{\contentsline {figure}{\numberline {16}{\ignorespaces South-East module, displacements in the shortest side of the diaphragm\relax }}{25}{figure.caption.27}\protected@file@percent }
\newlabel{SEdiaphr_disp_uX}{{16}{25}{South-East module, displacements in the shortest side of the diaphragm\relax }{figure.caption.27}{}}
\@writefile{lof}{\contentsline {figure}{\numberline {17}{\ignorespaces South-East module, displacements in the longest side of the diaphragm\relax }}{25}{figure.caption.28}\protected@file@percent }
\newlabel{SEdiaphr_disp_uY}{{17}{25}{South-East module, displacements in the longest side of the diaphragm\relax }{figure.caption.28}{}}
\@writefile{lof}{\contentsline {figure}{\numberline {18}{\ignorespaces South-West module, displacements in the shortest side of the diaphragm\relax }}{25}{figure.caption.29}\protected@file@percent }
\newlabel{SWdiaphr_disp_uX}{{18}{25}{South-West module, displacements in the shortest side of the diaphragm\relax }{figure.caption.29}{}}
\@writefile{lof}{\contentsline {figure}{\numberline {19}{\ignorespaces South-West module, displacements in the longest side of the diaphragm\relax }}{25}{figure.caption.30}\protected@file@percent }
\newlabel{SWdiaphr_disp_uY}{{19}{25}{South-West module, displacements in the longest side of the diaphragm\relax }{figure.caption.30}{}}
\@writefile{toc}{\contentsline {subsection}{\numberline {7.3}Steel structure}{26}{subsection.7.3}\protected@file@percent }
\newlabel{steel_str_model_descr}{{7.3}{26}{Steel structure}{subsection.7.3}{}}
\@writefile{toc}{\contentsline {subsubsection}{\numberline {7.3.1}Geometry idealization and model}{26}{subsubsection.7.3.1}\protected@file@percent }
\@writefile{toc}{\contentsline {subsubsection}{\numberline {7.3.2}Design for stability}{26}{subsubsection.7.3.2}\protected@file@percent }
\@writefile{toc}{\contentsline {paragraph}{Direct analysis method}{26}{section*.33}\protected@file@percent }
\@writefile{toc}{\contentsline {paragraph}{Calculation of required strenghts}{26}{section*.34}\protected@file@percent }
\@writefile{toc}{\contentsline {subparagraph}{Consideration of initial system imperfections}{26}{section*.35}\protected@file@percent }
\newlabel{sc_adj_stiff}{{7.3.2}{26}{Adjustments to stiffness}{section*.36}{}}
\@writefile{toc}{\contentsline {subparagraph}{Adjustments to stiffness}{26}{section*.36}\protected@file@percent }
\@writefile{lof}{\contentsline {figure}{\numberline {20}{\ignorespaces FE model of the steel structure and foundation\relax }}{27}{figure.caption.31}\protected@file@percent }
\newlabel{steel_struct_model}{{20}{27}{FE model of the steel structure and foundation\relax }{figure.caption.31}{}}
\@writefile{lof}{\contentsline {figure}{\numberline {21}{\ignorespaces Strong axis (red) and weak axis (blue) of the steel structure\relax }}{27}{figure.caption.32}\protected@file@percent }
\newlabel{steel_struct_strong_weak_axes}{{21}{27}{Strong axis (red) and weak axis (blue) of the steel structure\relax }{figure.caption.32}{}}
\@writefile{toc}{\contentsline {paragraph}{Calculation of available strengths}{28}{section*.37}\protected@file@percent }
\@writefile{toc}{\contentsline {subsubsection}{\numberline {7.3.3}Graphical output}{28}{subsubsection.7.3.3}\protected@file@percent }
\newlabel{steel_str_graph_out}{{7.3.3}{28}{Graphical output}{subsubsection.7.3.3}{}}
\@writefile{toc}{\contentsline {section}{\numberline {8}Timber structure}{29}{section.8}\protected@file@percent }
\@writefile{toc}{\contentsline {subsection}{\numberline {8.1}Trusses}{29}{subsection.8.1}\protected@file@percent }
\@writefile{toc}{\contentsline {subsubsection}{\numberline {8.1.1}Introduction}{29}{subsubsection.8.1.1}\protected@file@percent }
\@writefile{toc}{\contentsline {subsubsection}{\numberline {8.1.2}Second floor trusses deflections}{29}{subsubsection.8.1.2}\protected@file@percent }
\@writefile{toc}{\contentsline {subsection}{\numberline {8.2}Joists}{29}{subsection.8.2}\protected@file@percent }
\@writefile{toc}{\contentsline {subsubsection}{\numberline {8.2.1}Roof rafters design}{29}{subsubsection.8.2.1}\protected@file@percent }
\@writefile{lof}{\contentsline {figure}{\numberline {22}{\ignorespaces Trusses key plan.\relax }}{30}{figure.caption.38}\protected@file@percent }
\newlabel{fg_2nd_floor_trusses_key_plan_sketch}{{22}{30}{Trusses key plan.\relax }{figure.caption.38}{}}
\@writefile{lof}{\contentsline {figure}{\numberline {23}{\ignorespaces Floor trusses: modified Warren configuration.\relax }}{30}{figure.caption.39}\protected@file@percent }
\newlabel{fg_2nd_floor_trusses_configuration}{{23}{30}{Floor trusses: modified Warren configuration.\relax }{figure.caption.39}{}}
\@writefile{lot}{\contentsline {table}{\numberline {5}{\ignorespaces Second floor trusses deflections\relax }}{31}{table.caption.40}\protected@file@percent }
\newlabel{tb_second_floor_trusses_deflections}{{5}{31}{Second floor trusses deflections\relax }{table.caption.40}{}}
\@writefile{lot}{\contentsline {table}{\numberline {6}{\ignorespaces Roof rafters structural integrity calculation results\relax }}{31}{table.caption.41}\protected@file@percent }
\newlabel{tb_roof_rafters_structural_integrity}{{6}{31}{Roof rafters structural integrity calculation results\relax }{table.caption.41}{}}
\@writefile{toc}{\contentsline {subsubsection}{\numberline {8.2.2}Scissor trusses}{32}{subsubsection.8.2.2}\protected@file@percent }
\@writefile{toc}{\contentsline {subsubsection}{\numberline {8.2.3}Roof joists and beams}{32}{subsubsection.8.2.3}\protected@file@percent }
\newlabel{sc_roof_joists_and_beams}{{8.2.3}{32}{Roof joists and beams}{subsubsection.8.2.3}{}}
\@writefile{toc}{\contentsline {subsubsection}{\numberline {8.2.4}Attic joists}{32}{subsubsection.8.2.4}\protected@file@percent }
\@writefile{lot}{\contentsline {table}{\numberline {7}{\ignorespaces Roof joists and beams. Maximum deflections\relax }}{32}{table.caption.45}\protected@file@percent }
\newlabel{tb_roof_floor_joists_and_lvl_beams_deflections}{{7}{32}{Roof joists and beams. Maximum deflections\relax }{table.caption.45}{}}
\@writefile{lof}{\contentsline {figure}{\numberline {24}{\ignorespaces Rafters key view.\relax }}{33}{figure.caption.42}\protected@file@percent }
\newlabel{fg_rafters_dimensions_rev01}{{24}{33}{Rafters key view.\relax }{figure.caption.42}{}}
\@writefile{lof}{\contentsline {figure}{\numberline {25}{\ignorespaces Roof joists and beams.\relax }}{33}{figure.caption.43}\protected@file@percent }
\newlabel{fg_roof_floor_joists_and_lvl_beams}{{25}{33}{Roof joists and beams.\relax }{figure.caption.43}{}}
\@writefile{lof}{\contentsline {figure}{\numberline {26}{\ignorespaces Loads on roof joists and beams.\relax }}{34}{figure.caption.44}\protected@file@percent }
\newlabel{fg_roof_floor_joists_and_lvl_beams_loads}{{26}{34}{Loads on roof joists and beams.\relax }{figure.caption.44}{}}
\@writefile{lof}{\contentsline {figure}{\numberline {27}{\ignorespaces Roof joists and beams. Bending efficiency\relax }}{34}{figure.caption.46}\protected@file@percent }
\newlabel{fg_roof_beams_and_joists_bending_efficiency}{{27}{34}{Roof joists and beams. Bending efficiency\relax }{figure.caption.46}{}}
\@writefile{lof}{\contentsline {figure}{\numberline {28}{\ignorespaces Roof joists and beams. Shear efficiency\relax }}{35}{figure.caption.47}\protected@file@percent }
\newlabel{fg_roof_beams_and_joists_shear_efficiency}{{28}{35}{Roof joists and beams. Shear efficiency\relax }{figure.caption.47}{}}
\@writefile{toc}{\contentsline {subsubsection}{\numberline {8.2.5}Second floor corridors beams and joists}{36}{subsubsection.8.2.5}\protected@file@percent }
\newlabel{sc_2nd_floor_joists_and_beams}{{8.2.5}{36}{Second floor corridors beams and joists}{subsubsection.8.2.5}{}}
\@writefile{lot}{\contentsline {table}{\numberline {8}{\ignorespaces Second floor joists and beams. Maximum deflections\relax }}{36}{table.caption.52}\protected@file@percent }
\newlabel{tb_2nd_floor_floor_joists_and_lvl_beams_deflections}{{8}{36}{Second floor joists and beams. Maximum deflections\relax }{table.caption.52}{}}
\@writefile{lof}{\contentsline {figure}{\numberline {29}{\ignorespaces Attic joists key view.\relax }}{37}{figure.caption.48}\protected@file@percent }
\newlabel{fg_bottom_chords_dimensions_rev01}{{29}{37}{Attic joists key view.\relax }{figure.caption.48}{}}
\@writefile{lof}{\contentsline {figure}{\numberline {30}{\ignorespaces 2\textsuperscript  {nd} floor corridors beams and joists.\relax }}{37}{figure.caption.49}\protected@file@percent }
\newlabel{fg_second_floor_beams_and_joists_rev01}{{30}{37}{2\textsuperscript {nd} floor corridors beams and joists.\relax }{figure.caption.49}{}}
\@writefile{lof}{\contentsline {figure}{\numberline {31}{\ignorespaces 2\textsuperscript  {nd} floor north facade balcony beams and joists.\relax }}{38}{figure.caption.50}\protected@file@percent }
\newlabel{fg_north_facade_cantilever}{{31}{38}{2\textsuperscript {nd} floor north facade balcony beams and joists.\relax }{figure.caption.50}{}}
\@writefile{lof}{\contentsline {figure}{\numberline {32}{\ignorespaces Loads on roof joists and beams.\relax }}{38}{figure.caption.51}\protected@file@percent }
\newlabel{fg_2nd_floor_floor_joists_and_lvl_beams_loads}{{32}{38}{Loads on roof joists and beams.\relax }{figure.caption.51}{}}
\@writefile{lof}{\contentsline {figure}{\numberline {33}{\ignorespaces Roof joists and beams. Bending efficiency\relax }}{39}{figure.caption.53}\protected@file@percent }
\newlabel{fg_2nd_floor_beams_and_joists_bending_efficiency}{{33}{39}{Roof joists and beams. Bending efficiency\relax }{figure.caption.53}{}}
\@writefile{lof}{\contentsline {figure}{\numberline {34}{\ignorespaces Roof joists and beams. Shear efficiency\relax }}{39}{figure.caption.54}\protected@file@percent }
\newlabel{fg_2nd_floor_beams_and_joists_shear_efficiency}{{34}{39}{Roof joists and beams. Shear efficiency\relax }{figure.caption.54}{}}
\@writefile{toc}{\contentsline {subsection}{\numberline {8.3}Headers}{40}{subsection.8.3}\protected@file@percent }
\@writefile{toc}{\contentsline {subsubsection}{\numberline {8.3.1}Second floor headers}{40}{subsubsection.8.3.1}\protected@file@percent }
\@writefile{lof}{\contentsline {figure}{\numberline {35}{\ignorespaces 2nd floor headers.\relax }}{41}{figure.caption.55}\protected@file@percent }
\newlabel{fg_headers_attic_floor_rev01}{{35}{41}{2nd floor headers.\relax }{figure.caption.55}{}}
\@writefile{lot}{\contentsline {table}{\numberline {9}{\ignorespaces Second floor headers. Deflections\relax }}{41}{table.caption.56}\protected@file@percent }
\newlabel{2nd_floor_header_deflections}{{9}{41}{Second floor headers. Deflections\relax }{table.caption.56}{}}
\@writefile{toc}{\contentsline {subsubsection}{\numberline {8.3.2}First floor headers}{42}{subsubsection.8.3.2}\protected@file@percent }
\@writefile{toc}{\contentsline {subsubsection}{\numberline {8.3.3}Garage lintels}{42}{subsubsection.8.3.3}\protected@file@percent }
\@writefile{lot}{\contentsline {table}{\numberline {10}{\ignorespaces First floor headers. Deflections\relax }}{42}{table.caption.58}\protected@file@percent }
\newlabel{tb_1st_floor_header_deflections}{{10}{42}{First floor headers. Deflections\relax }{table.caption.58}{}}
\@writefile{lof}{\contentsline {figure}{\numberline {36}{\ignorespaces 1st floor headers.\relax }}{43}{figure.caption.57}\protected@file@percent }
\newlabel{fg_headers_2nd_floor}{{36}{43}{1st floor headers.\relax }{figure.caption.57}{}}
\@writefile{lof}{\contentsline {figure}{\numberline {37}{\ignorespaces Garage lintels.\relax }}{43}{figure.caption.59}\protected@file@percent }
\newlabel{fg_garage_lintels}{{37}{43}{Garage lintels.\relax }{figure.caption.59}{}}
\@writefile{lot}{\contentsline {table}{\numberline {11}{\ignorespaces Garage lintels. Deflections\relax }}{43}{table.caption.60}\protected@file@percent }
\newlabel{tb_garage_lintels_deflections}{{11}{43}{Garage lintels. Deflections\relax }{table.caption.60}{}}
\@writefile{toc}{\contentsline {subsection}{\numberline {8.4}Built-up columns}{44}{subsection.8.4}\protected@file@percent }
\@writefile{toc}{\contentsline {subsubsection}{\numberline {8.4.1}Second floor columns}{44}{subsubsection.8.4.1}\protected@file@percent }
\@writefile{toc}{\contentsline {subsubsection}{\numberline {8.4.2}First floor columns}{44}{subsubsection.8.4.2}\protected@file@percent }
\@writefile{toc}{\contentsline {subsection}{\numberline {8.5}Second floor bearing walls}{44}{subsection.8.5}\protected@file@percent }
\@writefile{toc}{\contentsline {subsubsection}{\numberline {8.5.1}Loads on second floor walls}{44}{subsubsection.8.5.1}\protected@file@percent }
\@writefile{toc}{\contentsline {subsubsection}{\numberline {8.5.2}Load combinations}{44}{subsubsection.8.5.2}\protected@file@percent }
\@writefile{lof}{\contentsline {figure}{\numberline {38}{\ignorespaces 2nd floor columns. Numbering\relax }}{45}{figure.caption.61}\protected@file@percent }
\newlabel{fg_second_floor_built-up_timber_columns_numbers}{{38}{45}{2nd floor columns. Numbering\relax }{figure.caption.61}{}}
\@writefile{lof}{\contentsline {figure}{\numberline {39}{\ignorespaces 2nd floor built-up columns.\relax }}{45}{figure.caption.62}\protected@file@percent }
\newlabel{fg_second_floor_built-up_timber_columns_sketch}{{39}{45}{2nd floor built-up columns.\relax }{figure.caption.62}{}}
\@writefile{lot}{\contentsline {table}{\numberline {12}{\ignorespaces Second floor columns. Structural integrity calculations results.\relax }}{46}{table.caption.63}\protected@file@percent }
\newlabel{tb_2nd_floor_calculation_results}{{12}{46}{Second floor columns. Structural integrity calculations results.\relax }{table.caption.63}{}}
\@writefile{lof}{\contentsline {figure}{\numberline {40}{\ignorespaces 1st floor columns. Numbering\relax }}{46}{figure.caption.64}\protected@file@percent }
\newlabel{fg_first_floor_built-up_timber_columns_numbers}{{40}{46}{1st floor columns. Numbering\relax }{figure.caption.64}{}}
\@writefile{lof}{\contentsline {figure}{\numberline {41}{\ignorespaces 1st floor built-up columns.\relax }}{47}{figure.caption.65}\protected@file@percent }
\newlabel{fg_first_floor_built-up_timber_columns_sketch}{{41}{47}{1st floor built-up columns.\relax }{figure.caption.65}{}}
\@writefile{lot}{\contentsline {table}{\numberline {13}{\ignorespaces First floor columns. Structural integrity calculations results.\relax }}{47}{table.caption.66}\protected@file@percent }
\newlabel{tb_1st_floor_calculation_results}{{13}{47}{First floor columns. Structural integrity calculations results.\relax }{table.caption.66}{}}
\@writefile{lot}{\contentsline {table}{\numberline {14}{\ignorespaces Stud design. Load combinations\relax }}{47}{table.caption.67}\protected@file@percent }
\newlabel{sc_stud_design_load_combinations}{{14}{47}{Stud design. Load combinations\relax }{table.caption.67}{}}
\@writefile{toc}{\contentsline {subsubsection}{\numberline {8.5.3}Stud material and arrangement}{48}{subsubsection.8.5.3}\protected@file@percent }
\@writefile{toc}{\contentsline {subsubsection}{\numberline {8.5.4}Stud design}{48}{subsubsection.8.5.4}\protected@file@percent }
\@writefile{toc}{\contentsline {subsection}{\numberline {8.6}Second floor shear walls}{48}{subsection.8.6}\protected@file@percent }
\@writefile{toc}{\contentsline {section}{\numberline {9}Steel structure, results of analysis}{48}{section.9}\protected@file@percent }
\newlabel{res_steel_struct}{{9}{48}{Steel structure, results of analysis}{section.9}{}}
\@writefile{lot}{\contentsline {table}{\numberline {15}{\ignorespaces Load combinations for analysis of the steel structure model\relax }}{48}{table.caption.68}\protected@file@percent }
\newlabel{steel_str_combs}{{15}{48}{Load combinations for analysis of the steel structure model\relax }{table.caption.68}{}}
\newlabel{piers_reinf}{{9}{48}{Steel structure, results of analysis}{figure.caption.69}{}}
\@writefile{lof}{\contentsline {figure}{\numberline {42}{\ignorespaces Reinforcement arrangement in piers and foundation\relax }}{49}{figure.caption.69}\protected@file@percent }
\@writefile{toc}{\contentsline {subsection}{\numberline {9.1}Load patterns}{50}{subsection.9.1}\protected@file@percent }
\@writefile{toc}{\contentsline {subsection}{\numberline {9.2}Check under normal stresses}{50}{subsection.9.2}\protected@file@percent }
\@writefile{toc}{\contentsline {subsection}{\numberline {9.3}Check under shear stresses}{50}{subsection.9.3}\protected@file@percent }
\@writefile{toc}{\contentsline {subsection}{\numberline {9.4}Check displacements for SLS}{50}{subsection.9.4}\protected@file@percent }
\@writefile{toc}{\contentsline {subsection}{\numberline {9.5}Foundation soil pressures for SLS}{50}{subsection.9.5}\protected@file@percent }
\newlabel{DLoverallSetSteelStruct}{{43a}{51}{DL dead load transmitted to the steel structure, units:[m, kN]\relax }{figure.caption.70}{}}
\newlabel{sub@DLoverallSetSteelStruct}{{a}{51}{DL dead load transmitted to the steel structure, units:[m, kN]\relax }{figure.caption.70}{}}
\newlabel{LLoverallSet}{{43b}{51}{LL live load transmitted to the steel structure, units:[m, kN]\relax }{figure.caption.70}{}}
\newlabel{sub@LLoverallSet}{{b}{51}{LL live load transmitted to the steel structure, units:[m, kN]\relax }{figure.caption.70}{}}
\newlabel{SLoverallSet}{{43c}{51}{SL snow load transmitted to the steel structure, units:[m, kN]\relax }{figure.caption.70}{}}
\newlabel{sub@SLoverallSet}{{c}{51}{SL snow load transmitted to the steel structure, units:[m, kN]\relax }{figure.caption.70}{}}
\newlabel{WLWEoverallSet}{{43d}{51}{WLWE West-East wind load, units:[m, kN]\relax }{figure.caption.70}{}}
\newlabel{sub@WLWEoverallSet}{{d}{51}{WLWE West-East wind load, units:[m, kN]\relax }{figure.caption.70}{}}
\newlabel{WLEWoverallSet}{{43e}{51}{WLEW East-West wind load, units:[m, kN]\relax }{figure.caption.70}{}}
\newlabel{sub@WLEWoverallSet}{{e}{51}{WLEW East-West wind load, units:[m, kN]\relax }{figure.caption.70}{}}
\@writefile{lof}{\contentsline {figure}{\numberline {43}{\ignorespaces Loads on the steel structure.\relax }}{51}{figure.caption.70}\protected@file@percent }
\newlabel{loadsOveralSet}{{43}{51}{Loads on the steel structure.\relax }{figure.caption.70}{}}
\@writefile{lof}{\contentsline {figure}{\numberline {44}{\ignorespaces ULS normal stresses check. Steel beams, efficiency\relax }}{52}{figure.caption.71}\protected@file@percent }
\newlabel{fg_steelBeamsCF}{{44}{52}{ULS normal stresses check. Steel beams, efficiency\relax }{figure.caption.71}{}}
\@writefile{lof}{\contentsline {figure}{\numberline {45}{\ignorespaces ULS normal stresses check. Steel beams, internal axial force\relax }}{52}{figure.caption.72}\protected@file@percent }
\newlabel{fg_steelBeamsN}{{45}{52}{ULS normal stresses check. Steel beams, internal axial force\relax }{figure.caption.72}{}}
\@writefile{lof}{\contentsline {figure}{\numberline {46}{\ignorespaces ULS normal stresses check. Steel beams, bending moment about local axis y\relax }}{53}{figure.caption.73}\protected@file@percent }
\newlabel{fg_steelBeamsMy}{{46}{53}{ULS normal stresses check. Steel beams, bending moment about local axis y\relax }{figure.caption.73}{}}
\@writefile{lof}{\contentsline {figure}{\numberline {47}{\ignorespaces ULS normal stresses check. Steel columns, efficiency\relax }}{53}{figure.caption.75}\protected@file@percent }
\newlabel{fg_steelColsCF}{{47}{53}{ULS normal stresses check. Steel columns, efficiency\relax }{figure.caption.75}{}}
\@writefile{lof}{\contentsline {figure}{\numberline {48}{\ignorespaces ULS normal stresses check. Steel columns, internal axial force\relax }}{54}{figure.caption.76}\protected@file@percent }
\newlabel{fg_steelColsN}{{48}{54}{ULS normal stresses check. Steel columns, internal axial force\relax }{figure.caption.76}{}}
\@writefile{lof}{\contentsline {figure}{\numberline {49}{\ignorespaces ULS normal stresses check. Steel columns, bending moment about local axis y\relax }}{54}{figure.caption.77}\protected@file@percent }
\newlabel{fg_steelColsMy}{{49}{54}{ULS normal stresses check. Steel columns, bending moment about local axis y\relax }{figure.caption.77}{}}
\@writefile{lof}{\contentsline {figure}{\numberline {50}{\ignorespaces ULS normal stresses check. Concrete piers, efficiency\relax }}{55}{figure.caption.78}\protected@file@percent }
\newlabel{fg_concrColsCF}{{50}{55}{ULS normal stresses check. Concrete piers, efficiency\relax }{figure.caption.78}{}}
\@writefile{lof}{\contentsline {figure}{\numberline {51}{\ignorespaces ULS normal stresses check. Concrete piers, internal axial force\relax }}{55}{figure.caption.79}\protected@file@percent }
\newlabel{fg_concrColsN}{{51}{55}{ULS normal stresses check. Concrete piers, internal axial force\relax }{figure.caption.79}{}}
\@writefile{lof}{\contentsline {figure}{\numberline {52}{\ignorespaces ULS normal stresses check. Concrete piers, bending moment about local axis y\relax }}{56}{figure.caption.80}\protected@file@percent }
\newlabel{fg_concrColsMy}{{52}{56}{ULS normal stresses check. Concrete piers, bending moment about local axis y\relax }{figure.caption.80}{}}
\@writefile{lof}{\contentsline {figure}{\numberline {53}{\ignorespaces ULS normal stresses check. Concrete piers, bending moment about local axis z\relax }}{56}{figure.caption.81}\protected@file@percent }
\newlabel{fg_concrColsMz}{{53}{56}{ULS normal stresses check. Concrete piers, bending moment about local axis z\relax }{figure.caption.81}{}}
\@writefile{lof}{\contentsline {figure}{\numberline {54}{\ignorespaces ULS normal stresses check. Footings, efficiency, dir. 1\relax }}{57}{figure.caption.82}\protected@file@percent }
\newlabel{fg_foundationCFSect1}{{54}{57}{ULS normal stresses check. Footings, efficiency, dir. 1\relax }{figure.caption.82}{}}
\@writefile{lof}{\contentsline {figure}{\numberline {55}{\ignorespaces ULS normal stresses check. Footings, efficiency, dir. 2\relax }}{57}{figure.caption.83}\protected@file@percent }
\newlabel{fg_foundationCFSect2}{{55}{57}{ULS normal stresses check. Footings, efficiency, dir. 2\relax }{figure.caption.83}{}}
\@writefile{lof}{\contentsline {figure}{\numberline {56}{\ignorespaces ULS normal stresses check. Footings, internal axial force, dir. 1\relax }}{58}{figure.caption.84}\protected@file@percent }
\newlabel{fg_foundationNSect1}{{56}{58}{ULS normal stresses check. Footings, internal axial force, dir. 1\relax }{figure.caption.84}{}}
\@writefile{lof}{\contentsline {figure}{\numberline {57}{\ignorespaces ULS normal stresses check. Footings, internal axial force, dir. 2\relax }}{58}{figure.caption.85}\protected@file@percent }
\newlabel{fg_foundationNSect2}{{57}{58}{ULS normal stresses check. Footings, internal axial force, dir. 2\relax }{figure.caption.85}{}}
\@writefile{lof}{\contentsline {figure}{\numberline {58}{\ignorespaces ULS normal stresses check. Footings, bending moment about local axis y, dir. 1\relax }}{59}{figure.caption.86}\protected@file@percent }
\newlabel{fg_foundationMySect1}{{58}{59}{ULS normal stresses check. Footings, bending moment about local axis y, dir. 1\relax }{figure.caption.86}{}}
\@writefile{lof}{\contentsline {figure}{\numberline {59}{\ignorespaces ULS normal stresses check. Footings, bending moment about local axis y, dir. 2\relax }}{59}{figure.caption.87}\protected@file@percent }
\newlabel{fg_foundationMySect2}{{59}{59}{ULS normal stresses check. Footings, bending moment about local axis y, dir. 2\relax }{figure.caption.87}{}}
\@writefile{lof}{\contentsline {figure}{\numberline {60}{\ignorespaces ULS shear check. Steel beams, efficiency\relax }}{60}{figure.caption.88}\protected@file@percent }
\newlabel{fg_steelBeamsCFShear}{{60}{60}{ULS shear check. Steel beams, efficiency\relax }{figure.caption.88}{}}
\@writefile{lof}{\contentsline {figure}{\numberline {61}{\ignorespaces ULS shear check. Steel beams, internal shear force in local direction y\relax }}{60}{figure.caption.89}\protected@file@percent }
\newlabel{fg_steelBeamsVyShear}{{61}{60}{ULS shear check. Steel beams, internal shear force in local direction y\relax }{figure.caption.89}{}}
\@writefile{lof}{\contentsline {figure}{\numberline {62}{\ignorespaces ULS shear check. Steel columns, efficiency\relax }}{61}{figure.caption.90}\protected@file@percent }
\newlabel{fg_steelColsCFShear}{{62}{61}{ULS shear check. Steel columns, efficiency\relax }{figure.caption.90}{}}
\@writefile{lof}{\contentsline {figure}{\numberline {63}{\ignorespaces ULS shear check. Steel columns, internal shear force in local direction y\relax }}{61}{figure.caption.91}\protected@file@percent }
\newlabel{fg_steelColsVyShear}{{63}{61}{ULS shear check. Steel columns, internal shear force in local direction y\relax }{figure.caption.91}{}}
\@writefile{lof}{\contentsline {figure}{\numberline {64}{\ignorespaces ULS shear check. Concrete piers, efficiency\relax }}{62}{figure.caption.92}\protected@file@percent }
\newlabel{fg_concrColsCFShear}{{64}{62}{ULS shear check. Concrete piers, efficiency\relax }{figure.caption.92}{}}
\@writefile{lof}{\contentsline {figure}{\numberline {65}{\ignorespaces ULS shear check. Concrete piers, internal shear force in local direction y\relax }}{62}{figure.caption.93}\protected@file@percent }
\newlabel{fg_concrColsVyShear}{{65}{62}{ULS shear check. Concrete piers, internal shear force in local direction y\relax }{figure.caption.93}{}}
\@writefile{lof}{\contentsline {figure}{\numberline {66}{\ignorespaces ULS shear check. Concrete piers, internal shear force in local direction z\relax }}{63}{figure.caption.94}\protected@file@percent }
\newlabel{fg_concrColsVzShear}{{66}{63}{ULS shear check. Concrete piers, internal shear force in local direction z\relax }{figure.caption.94}{}}
\@writefile{lof}{\contentsline {figure}{\numberline {67}{\ignorespaces ULS shear check. Footings, efficiency, dir. 1\relax }}{63}{figure.caption.95}\protected@file@percent }
\newlabel{fg_foundationCFSect1Shear}{{67}{63}{ULS shear check. Footings, efficiency, dir. 1\relax }{figure.caption.95}{}}
\@writefile{lof}{\contentsline {figure}{\numberline {68}{\ignorespaces ULS shear check. Footings, efficiency, dir. 2\relax }}{64}{figure.caption.96}\protected@file@percent }
\newlabel{fg_foundationCFSect2Shear}{{68}{64}{ULS shear check. Footings, efficiency, dir. 2\relax }{figure.caption.96}{}}
\@writefile{lof}{\contentsline {figure}{\numberline {69}{\ignorespaces ULS shear check. Footings, internal shear force in local direction y, dir. 1\relax }}{64}{figure.caption.97}\protected@file@percent }
\newlabel{fg_foundationVySect1Shear}{{69}{64}{ULS shear check. Footings, internal shear force in local direction y, dir. 1\relax }{figure.caption.97}{}}
\@writefile{lof}{\contentsline {figure}{\numberline {70}{\ignorespaces ULS shear check. Footings, internal shear force in local direction y, dir. 2\relax }}{65}{figure.caption.98}\protected@file@percent }
\newlabel{fg_foundationVySect2Shear}{{70}{65}{ULS shear check. Footings, internal shear force in local direction y, dir. 2\relax }{figure.caption.98}{}}
\@writefile{lof}{\contentsline {figure}{\numberline {71}{\ignorespaces ULS shear check. Footings, internal shear force in local direction z, dir. 1\relax }}{65}{figure.caption.99}\protected@file@percent }
\newlabel{fg_foundationVzSect1Shear}{{71}{65}{ULS shear check. Footings, internal shear force in local direction z, dir. 1\relax }{figure.caption.99}{}}
\@writefile{lof}{\contentsline {figure}{\numberline {72}{\ignorespaces ULS shear check. Footings, internal shear force in local direction z, dir. 2\relax }}{66}{figure.caption.100}\protected@file@percent }
\newlabel{fg_foundationVzSect2Shear}{{72}{66}{ULS shear check. Footings, internal shear force in local direction z, dir. 2\relax }{figure.caption.100}{}}
\@writefile{lof}{\contentsline {figure}{\numberline {73}{\ignorespaces SLS envelope of displacements in X direction\relax }}{66}{figure.caption.101}\protected@file@percent }
\newlabel{fg_envUX}{{73}{66}{SLS envelope of displacements in X direction\relax }{figure.caption.101}{}}
\@writefile{lof}{\contentsline {figure}{\numberline {74}{\ignorespaces SLS envelope of displacements in Y direction\relax }}{67}{figure.caption.102}\protected@file@percent }
\newlabel{fg_envUY}{{74}{67}{SLS envelope of displacements in Y direction\relax }{figure.caption.102}{}}
\@writefile{lof}{\contentsline {figure}{\numberline {75}{\ignorespaces SLS envelope of displacements in Z direction\relax }}{67}{figure.caption.103}\protected@file@percent }
\newlabel{fg_envUZ}{{75}{67}{SLS envelope of displacements in Z direction\relax }{figure.caption.103}{}}
\@writefile{lof}{\contentsline {figure}{\numberline {76}{\ignorespaces Foundation soil pressures.\relax }}{68}{figure.caption.104}\protected@file@percent }
\newlabel{fg_foundation_soil_pressures}{{76}{68}{Foundation soil pressures.\relax }{figure.caption.104}{}}
\@writefile{toc}{\contentsline {section}{\numberline {10}Tornado shelter, results of analysis}{69}{section.10}\protected@file@percent }
\newlabel{shelter_results}{{10}{69}{Tornado shelter, results of analysis}{section.10}{}}
\@writefile{lot}{\contentsline {table}{\numberline {16}{\ignorespaces Load combinations for analysis of the shelter RC structure\relax }}{69}{table.caption.105}\protected@file@percent }
\newlabel{shelter_str_combs}{{16}{69}{Load combinations for analysis of the shelter RC structure\relax }{table.caption.105}{}}
\@writefile{lof}{\contentsline {figure}{\numberline {77}{\ignorespaces Tornado shelter transverse section, reinforcement arrangement\relax }}{70}{figure.caption.106}\protected@file@percent }
\@writefile{lof}{\contentsline {figure}{\numberline {78}{\ignorespaces Tornado shelter transverse section, reinforcement arrangement\relax }}{70}{figure.caption.107}\protected@file@percent }
\@writefile{lof}{\contentsline {figure}{\numberline {79}{\ignorespaces Tornado shelter horizontal section, reinforcement arrangement\relax }}{70}{figure.caption.108}\protected@file@percent }
\newlabel{reinf_transv_section}{{10}{71}{Tornado shelter, results of analysis}{figure.caption.106}{}}
\newlabel{reinf_long_section}{{10}{71}{Tornado shelter, results of analysis}{figure.caption.107}{}}
\newlabel{reinf_horiz_section}{{10}{71}{Tornado shelter, results of analysis}{figure.caption.108}{}}
\@writefile{toc}{\contentsline {subsection}{\numberline {10.1}Shelter load patterns}{71}{subsection.10.1}\protected@file@percent }
\@writefile{toc}{\contentsline {subsection}{\numberline {10.2}Check under normal stresses}{71}{subsection.10.2}\protected@file@percent }
\newlabel{DLoverallSetShelter}{{80a}{72}{DL dead load distribution over tornado shelter, units:[m, kN]\relax }{figure.caption.109}{}}
\newlabel{sub@DLoverallSetShelter}{{a}{72}{DL dead load distribution over tornado shelter, units:[m, kN]\relax }{figure.caption.109}{}}
\newlabel{LLrToverallSet}{{80b}{72}{LL live load distribution over tornado shelter, units:[m, kN]\relax }{figure.caption.109}{}}
\newlabel{sub@LLrToverallSet}{{b}{72}{LL live load distribution over tornado shelter, units:[m, kN]\relax }{figure.caption.109}{}}
\newlabel{WLSNawalls}{{80c}{72}{WLSN South-North wind external pressures distribution over walls of tornado shelter, units:[m, kN]\relax }{figure.caption.109}{}}
\newlabel{sub@WLSNawalls}{{c}{72}{WLSN South-North wind external pressures distribution over walls of tornado shelter, units:[m, kN]\relax }{figure.caption.109}{}}
\newlabel{WLSNaroof}{{80d}{72}{WLSNa South-North wind maximum external pressures distribution over roof of tornado shelter, units:[m, kN]\relax }{figure.caption.109}{}}
\newlabel{sub@WLSNaroof}{{d}{72}{WLSNa South-North wind maximum external pressures distribution over roof of tornado shelter, units:[m, kN]\relax }{figure.caption.109}{}}
\newlabel{WLSNbroof}{{80e}{72}{WLSNb South-North wind minimum external pressures distribution over roof of tornado shelter, units:[m, kN]\relax }{figure.caption.109}{}}
\newlabel{sub@WLSNbroof}{{e}{72}{WLSNb South-North wind minimum external pressures distribution over roof of tornado shelter, units:[m, kN]\relax }{figure.caption.109}{}}
\newlabel{WLWEawalls}{{80f}{72}{WLWE West-East wind external pressures distribution over walls of tornado shelter, units:[m, kN]\relax }{figure.caption.109}{}}
\newlabel{sub@WLWEawalls}{{f}{72}{WLWE West-East wind external pressures distribution over walls of tornado shelter, units:[m, kN]\relax }{figure.caption.109}{}}
\@writefile{lof}{\contentsline {figure}{\numberline {80}{\ignorespaces Tornado shelter load patterns (1 of 2).\relax }}{72}{figure.caption.109}\protected@file@percent }
\newlabel{fg_tornado_shelter_load_patterns1}{{80}{72}{Tornado shelter load patterns (1 of 2).\relax }{figure.caption.109}{}}
\newlabel{WLWEaroof}{{81a}{73}{WLWEa West-East wind maximum external pressures distribution over roof of tornado shelter, units:[m, kN]\relax }{figure.caption.110}{}}
\newlabel{sub@WLWEaroof}{{a}{73}{WLWEa West-East wind maximum external pressures distribution over roof of tornado shelter, units:[m, kN]\relax }{figure.caption.110}{}}
\newlabel{WLWEbroof}{{81b}{73}{WLWEb West-East wind minimum external pressures distribution over roof of tornado shelter, units:[m, kN]\relax }{figure.caption.110}{}}
\newlabel{sub@WLWEbroof}{{b}{73}{WLWEb West-East wind minimum external pressures distribution over roof of tornado shelter, units:[m, kN]\relax }{figure.caption.110}{}}
\newlabel{WLintPosoverallSet}{{81c}{73}{WLintPos Wind positive internal pressures distribution over tornado shelter, units:[m, kN]\relax }{figure.caption.110}{}}
\newlabel{sub@WLintPosoverallSet}{{c}{73}{WLintPos Wind positive internal pressures distribution over tornado shelter, units:[m, kN]\relax }{figure.caption.110}{}}
\newlabel{WLintNegoverallSet}{{81d}{73}{WLintNeg Wind negative internal pressures distribution over tornado shelter, units:[m, kN]\relax }{figure.caption.110}{}}
\newlabel{sub@WLintNegoverallSet}{{d}{73}{WLintNeg Wind negative internal pressures distribution over tornado shelter, units:[m, kN]\relax }{figure.caption.110}{}}
\@writefile{lof}{\contentsline {figure}{\numberline {81}{\ignorespaces Tornado shelter load patterns (2 of 2).\relax }}{73}{figure.caption.110}\protected@file@percent }
\newlabel{fg_tornado_shelter_load_patterns2}{{81}{73}{Tornado shelter load patterns (2 of 2).\relax }{figure.caption.110}{}}
\@writefile{lof}{\contentsline {figure}{\numberline {82}{\ignorespaces Tornado shelter. Check under normal stresses (1 of 3).\relax }}{73}{figure.caption.111}\protected@file@percent }
\newlabel{fg_tornado_shelter_check_normal_stresses1}{{82}{73}{Tornado shelter. Check under normal stresses (1 of 3).\relax }{figure.caption.111}{}}
\@writefile{lof}{\contentsline {figure}{\numberline {83}{\ignorespaces Tornado shelter. Check under normal stresses (2 of 3).\relax }}{74}{figure.caption.112}\protected@file@percent }
\newlabel{fg_tornado_shelter_check_normal_stresses2}{{83}{74}{Tornado shelter. Check under normal stresses (2 of 3).\relax }{figure.caption.112}{}}
\@writefile{lof}{\contentsline {figure}{\numberline {84}{\ignorespaces Tornado shelter. Check under normal stresses (3 of 3).\relax }}{75}{figure.caption.113}\protected@file@percent }
\newlabel{fg_tornado_shelter_check_normal_stresses3}{{84}{75}{Tornado shelter. Check under normal stresses (3 of 3).\relax }{figure.caption.113}{}}
\@writefile{toc}{\contentsline {section}{\numberline {11}RC walls, results of analysis}{76}{section.11}\protected@file@percent }
\newlabel{sc_rc_walls}{{11}{76}{RC walls, results of analysis}{section.11}{}}
\@writefile{lot}{\contentsline {table}{\numberline {17}{\ignorespaces Load combinations for analysis of the building section model\relax }}{76}{table.caption.114}\protected@file@percent }
\newlabel{building_sect_combs}{{17}{76}{Load combinations for analysis of the building section model\relax }{table.caption.114}{}}
\@writefile{lof}{\contentsline {figure}{\numberline {85}{\ignorespaces Reinforcement arrangement in concrete wall and foundation\relax }}{76}{figure.caption.115}\protected@file@percent }
\newlabel{concrWall_reinf}{{11}{76}{RC walls, results of analysis}{figure.caption.115}{}}
\@writefile{toc}{\contentsline {subsection}{\numberline {11.1}Load patterns}{76}{subsection.11.1}\protected@file@percent }
\@writefile{toc}{\contentsline {subsection}{\numberline {11.2}Check under normal stresses}{76}{subsection.11.2}\protected@file@percent }
\newlabel{DLtotal}{{86a}{77}{DL dead load distribution in building section, units:[m, kN]\relax }{figure.caption.116}{}}
\newlabel{sub@DLtotal}{{a}{77}{DL dead load distribution in building section, units:[m, kN]\relax }{figure.caption.116}{}}
\newlabel{LLtotal}{{86b}{77}{LL live load distribution in building section, units:[m, kN]\relax }{figure.caption.116}{}}
\newlabel{sub@LLtotal}{{b}{77}{LL live load distribution in building section, units:[m, kN]\relax }{figure.caption.116}{}}
\newlabel{SLtotal}{{86c}{77}{LL live load distribution in building section, units:[m, kN]\relax }{figure.caption.116}{}}
\newlabel{sub@SLtotal}{{c}{77}{LL live load distribution in building section, units:[m, kN]\relax }{figure.caption.116}{}}
\newlabel{WLEWatotal}{{86d}{77}{WLEWa East-West wind with positive internal pressures distribution in building section, units:[m, kN]\relax }{figure.caption.116}{}}
\newlabel{sub@WLEWatotal}{{d}{77}{WLEWa East-West wind with positive internal pressures distribution in building section, units:[m, kN]\relax }{figure.caption.116}{}}
\newlabel{WLEWbtotal}{{86e}{77}{WLEWb East-West wind with negative internal pressures distribution in building section, units:[m, kN]\relax }{figure.caption.116}{}}
\newlabel{sub@WLEWbtotal}{{e}{77}{WLEWb East-West wind with negative internal pressures distribution in building section, units:[m, kN]\relax }{figure.caption.116}{}}
\@writefile{lof}{\contentsline {figure}{\numberline {86}{\ignorespaces Load patterns (1 of 2).\relax }}{77}{figure.caption.116}\protected@file@percent }
\newlabel{fg_section_3B_loads1}{{86}{77}{Load patterns (1 of 2).\relax }{figure.caption.116}{}}
\newlabel{WLWEatotal}{{87a}{78}{WLWEa West-East wind with positive internal pressures distribution in building section, units:[m, kN]\relax }{figure.caption.117}{}}
\newlabel{sub@WLWEatotal}{{a}{78}{WLWEa West-East wind with positive internal pressures distribution in building section, units:[m, kN]\relax }{figure.caption.117}{}}
\newlabel{WLWEbtotal}{{87b}{78}{WLWEb West-East wind with negative internal pressures distribution in building section, units:[m, kN]\relax }{figure.caption.117}{}}
\newlabel{sub@WLWEbtotal}{{b}{78}{WLWEb West-East wind with negative internal pressures distribution in building section, units:[m, kN]\relax }{figure.caption.117}{}}
\@writefile{lof}{\contentsline {figure}{\numberline {87}{\ignorespaces Load patterns (2 of 2).\relax }}{78}{figure.caption.117}\protected@file@percent }
\newlabel{fg_section_3B_loads2}{{87}{78}{Load patterns (2 of 2).\relax }{figure.caption.117}{}}
\@writefile{toc}{\contentsline {subsection}{\numberline {11.3}Check under shear stresses}{78}{subsection.11.3}\protected@file@percent }
\@writefile{lof}{\contentsline {figure}{\numberline {88}{\ignorespaces Check under normal stresses (1 of 2).\relax }}{79}{figure.caption.118}\protected@file@percent }
\newlabel{fg_concrete_walls_normal_stresses1}{{88}{79}{Check under normal stresses (1 of 2).\relax }{figure.caption.118}{}}
\@writefile{lof}{\contentsline {figure}{\numberline {89}{\ignorespaces Check under normal stresses (2 of 2).\relax }}{80}{figure.caption.119}\protected@file@percent }
\newlabel{fg_concrete_walls_normal_stresses2}{{89}{80}{Check under normal stresses (2 of 2).\relax }{figure.caption.119}{}}
\@writefile{lof}{\contentsline {figure}{\numberline {90}{\ignorespaces Check shear strength (1 of 2).\relax }}{81}{figure.caption.120}\protected@file@percent }
\newlabel{fg_concrete_walls_shear1}{{90}{81}{Check shear strength (1 of 2).\relax }{figure.caption.120}{}}
\@writefile{lof}{\contentsline {figure}{\numberline {91}{\ignorespaces Check shear strength (1 of 2).\relax }}{82}{figure.caption.121}\protected@file@percent }
\newlabel{fg_concrete_walls_shear2}{{91}{82}{Check shear strength (1 of 2).\relax }{figure.caption.121}{}}
\@writefile{toc}{\contentsline {section}{\numberline {A}\ignorespaces Hazards Report ASCE/SEI 7-22}{83}{appendix.A}\protected@file@percent }
\newlabel{hazards_report}{{A}{83}{\ignorespaces Hazards Report ASCE/SEI 7-22}{appendix.A}{}}
\@writefile{toc}{\contentsline {section}{\numberline {B}APA wall bracing calculator results}{90}{appendix.B}\protected@file@percent }
\@writefile{toc}{\contentsline {subsection}{\numberline {B.1}\ignorespaces North-East module results}{91}{subsection.B.1}\protected@file@percent }
\newlabel{apa_results_ne_module}{{B.1}{91}{\ignorespaces North-East module results}{subsection.B.1}{}}
\@writefile{toc}{\contentsline {subsection}{\numberline {B.2}\ignorespaces North-West module results}{101}{subsection.B.2}\protected@file@percent }
\newlabel{apa_results_nw_module}{{B.2}{101}{\ignorespaces North-West module results}{subsection.B.2}{}}
\@writefile{toc}{\contentsline {subsection}{\numberline {B.3}\ignorespaces South-East module results}{111}{subsection.B.3}\protected@file@percent }
\newlabel{apa_results_se_module}{{B.3}{111}{\ignorespaces South-East module results}{subsection.B.3}{}}
\@writefile{toc}{\contentsline {subsection}{\numberline {B.4}\ignorespaces South-West module results}{121}{subsection.B.4}\protected@file@percent }
\newlabel{apa_results_sw_module}{{B.4}{121}{\ignorespaces South-West module results}{subsection.B.4}{}}
\@writefile{toc}{\contentsline {section}{\numberline {C}\ignorespaces Shear walls required capacities}{133}{appendix.C}\protected@file@percent }
\newlabel{shear_walls_required_capacities}{{C}{133}{\ignorespaces Shear walls required capacities}{appendix.C}{}}
\newlabel{LastPage}{{}{136}{}{page.136}{}}
\xdef\lastpage@lastpage{136}
\xdef\lastpage@lastpageHy{136}
